GCDInner.vcd
$timescale
 1ps
$end

$scope module test $end
$var reg        1 "    clock $end
$var reg        1 #    reset $end
$var reg        1 $    io_e [0:0] $end
$var reg       16 %    io_b [15:0] $end
$var reg       16 &    io_a [15:0] $end
$var wire       1 '    io_v [0:0] $end
$var wire      16 (    io_z [15:0] $end
$var reg      1024 )    vcdfile [1023:0] $end
$var reg      1024 *    vpdfile [1023:0] $end
$var wire       1 1    clock_delay [0:0] $end
$var wire       1 2    reset_delay [0:0] $end
$var wire       1 3    io_e_delay [0:0] $end
$var wire      16 D    io_b_delay [15:0] $end
$var wire      16 E    io_a_delay [15:0] $end
$var wire       1 +    io_v_delay [0:0] $end
$var wire      16 B    io_z_delay [15:0] $end
$var reg        1 ,    vcdon $end

$scope module GCDInner $end
$var wire       1 1    clock $end
$var wire       1 2    reset $end
$var wire      16 E    io_a [15:0] $end
$var wire      16 D    io_b [15:0] $end
$var wire       1 3    io_e $end
$var wire      16 B    io_z [15:0] $end
$var wire       1 C    io_v $end
$var reg       16 -    x [15:0] $end
$var reg       32 .    _RAND_0 [31:0] $end
$var reg       16 /    y [15:0] $end
$var reg       32 0    _RAND_1 [31:0] $end
$var wire       1 6    _T $end
$var wire      16 7    _T_2 [15:0] $end
$var wire       1 8    _T_4 $end
$var wire      16 9    _T_6 [15:0] $end
$var wire       1 :    _T_8 $end
$var wire       1 ;    _T_9 $end
$var wire       1 <    _T_10 $end
$var wire       1 =    _T_11 $end
$var wire       1 >    _T_12 $end
$var wire       1 ?    _T_14 $end
$var wire       1 @    _T_15 $end
$var wire       1 A    _T_17 $end
$upscope $end
$upscope $end
$enddefinitions $end
#0
$dumpvars
0+
0,
b1000110000000000 -
1"
b10011011011101011010110000110110 .
1#
b0000000101000100 /
0$
b01101110100110110111001111011101 0
b0000000000000000 D
b0000000000000000 %
b0000000000000000 E
b0000000000000000 &
0'
b1000110000000000 (
b0000000000000000000000000000000000000000000000000000000000000000000000000000000000000000000000000000000000000000000000000000000000000000000000000000000000000000000000000000000000000000000000000000000000000000000000000000000000000000000000000000000000000000000000000000000000000000000000000000000000000000000000000000000000000000000000000000000000000000000000000000000000000000000000000000000000000000000000000000000000000000000000000000000000000000000000000000000000000000000000000000000000000000000000000000000000000000000000000000000000000000000000000000000000000000000000000000000000000000000000000000000000000000000000000000000000000000000000000000000000000000000000000000000000000000000000000000000000000000000000000000000000000000000000000000000000000000000000000000000000000000000000000000000000000000000000000000000000000000000000000000000000000000000000000000000000000000000000000000000000000000000000000000000000000000000000000000000000000000000000000000000000000000000000000000000000000000000000000000000000000000 )
b0000000000000000000000000000000000000000000000000000000000000000000000000000000000000000000000000000000000000000000000000000000000000000000000000000000000000000000000000000000000000000000000000000000000000000000000000000000000000000000000000000000000000000000000000000000000000000000000000000000000000000000000000000000000000000000000000000000000000000000000000000000000000000000000000000000000000000000000000000000000000000000000000000000000000000000000000000000000000000000000000000000000000000000000000000000000000000000000000000000000000000000000000000000000000000000000000000000000000000000000000000000000000000000000000000000000000000000000000000000000000000000000000000000000000000000000000000000000000000000000000000000000000000000000000000000000000000000000000000000000000000000000000000000000000000000000000000000000000000000000000000000000000000000000000000000000000000000000000000000000000000000000000000000000000000000000000000000000000000000000000000000000000000000000000000000000000000000000000000000000000000 *
b1000110000000000 B
11
12
0A
0C
03
1:
0<
0;
b1000101010111100 7
16
08
b0111010101000100 9
0=
1>
1?
0@
$end
#1000
0"
01
#2000
b1000101010111100 -
b1000101010111100 (
1"
b1000101010111100 B
11
b1000100101111000 7
b0111011010001000 9
#3000
0#
1#
0"
01
#4000
b1000100101111000 -
b1000100101111000 (
1"
b1000100101111000 B
11
b1000100000110100 7
b0111011111001100 9
#5000
0#
1#
0"
01
#6000
b1000100000110100 -
b1000100000110100 (
1"
b1000100000110100 B
11
b1000011011110000 7
b0111100100010000 9
#7000
0#
1#
0"
01
#8000
b1000011011110000 -
b1000011011110000 (
1"
b1000011011110000 B
11
b1000010110101100 7
b0111101001010100 9
#9000
0#
1#
0"
01
#10000
b1000010110101100 -
b1000010110101100 (
1"
b1000010110101100 B
11
b1000010001101000 7
b0111101110011000 9
#11000
1$
b0000000000011011 D
b0000000000011011 %
b0000000101101000 E
b0000000101101000 &
0#
0"
13
0:
1<
1;
02
1A
01
1=
#12000
b0000000000011011 /
b0000000101101000 -
b0000000101101000 (
1"
b0000000101101000 B
11
b0000000101001101 7
b1111111010110011 9
#13000
0$
0"
03
1:
01
#14000
b0000000101001101 -
b0000000101001101 (
1"
b0000000101001101 B
11
b0000000100110010 7
b1111111011001110 9
#15000
0"
01
#16000
b0000000100110010 -
b0000000100110010 (
1"
b0000000100110010 B
11
b0000000100010111 7
b1111111011101001 9
#17000
0"
01
#18000
b0000000100010111 -
b0000000100010111 (
1"
b0000000100010111 B
11
b0000000011111100 7
b1111111100000100 9
#19000
0"
01
#20000
b0000000011111100 -
b0000000011111100 (
1"
b0000000011111100 B
11
b0000000011100001 7
b1111111100011111 9
#21000
0"
01
#22000
b0000000011100001 -
b0000000011100001 (
1"
b0000000011100001 B
11
b0000000011000110 7
b1111111100111010 9
#23000
0"
01
#24000
b0000000011000110 -
b0000000011000110 (
1"
b0000000011000110 B
11
b0000000010101011 7
b1111111101010101 9
#25000
0"
01
#26000
b0000000010101011 -
b0000000010101011 (
1"
b0000000010101011 B
11
b0000000010010000 7
b1111111101110000 9
#27000
0"
01
#28000
b0000000010010000 -
b0000000010010000 (
1"
b0000000010010000 B
11
b0000000001110101 7
b1111111110001011 9
#29000
0"
01
#30000
b0000000001110101 -
b0000000001110101 (
1"
b0000000001110101 B
11
b0000000001011010 7
b1111111110100110 9
#31000
0"
01
#32000
b0000000001011010 -
b0000000001011010 (
1"
b0000000001011010 B
11
b0000000000111111 7
b1111111111000001 9
#33000
0"
01
#34000
b0000000000111111 -
b0000000000111111 (
1"
b0000000000111111 B
11
b0000000000100100 7
b1111111111011100 9
#35000
0"
01
#36000
b0000000000100100 -
b0000000000100100 (
1"
b0000000000100100 B
11
b0000000000001001 7
b1111111111110111 9
#37000
0"
01
#38000
b0000000000001001 -
b0000000000001001 (
1"
b0000000000001001 B
11
b1111111111101110 7
06
18
b0000000000010010 9
#39000
0"
01
#40000
b0000000000010010 /
1"
11
b1111111111110111 7
b0000000000001001 9
#41000
0"
01
#42000
b0000000000001001 /
1"
11
b0000000000000000 7
b0000000000000000 9
#43000
0"
01
#44000
1+
1'
b0000000000000000 /
1"
1C
11
b0000000000001001 7
16
08
b1111111111110111 9
